lfsr_stuff/lfsr.vcd
$date
	Sun Apr 11 22:03:38 2021
$end
$version
	Icarus Verilog
$end
$timescale
	100ps
$end
$scope module lfsr_tb $end
$var wire 1 ! total $end
$var wire 8 " q [7:0] $end
$var reg 1 # clk $end
$var reg 1 $ load $end
$var reg 1 % rst $end
$var reg 8 & seed [7:0] $end
$scope module L $end
$var wire 1 # clk $end
$var wire 1 % clr $end
$var wire 1 ' num_one $end
$var wire 1 ( num_out $end
$var wire 1 ) num_two $end
$var wire 8 * out [7:0] $end
$var wire 8 + seed [7:0] $end
$var wire 1 $ select $end
$var wire 1 , write $end
$var wire 8 - ffout [7:0] $end
$var wire 8 . ffin [7:0] $end
$scope module dffe $end
$var wire 1 # clk $end
$var wire 1 % clr $end
$var wire 1 / d $end
$var wire 1 , en $end
$var reg 1 0 q $end
$upscope $end
$scope module dffe2 $end
$var wire 1 # clk $end
$var wire 1 % clr $end
$var wire 1 1 d $end
$var wire 1 , en $end
$var reg 1 2 q $end
$upscope $end
$scope module dffe3 $end
$var wire 1 # clk $end
$var wire 1 % clr $end
$var wire 1 3 d $end
$var wire 1 , en $end
$var reg 1 4 q $end
$upscope $end
$scope module dffe4 $end
$var wire 1 # clk $end
$var wire 1 % clr $end
$var wire 1 5 d $end
$var wire 1 , en $end
$var reg 1 6 q $end
$upscope $end
$scope module dffe5 $end
$var wire 1 # clk $end
$var wire 1 % clr $end
$var wire 1 7 d $end
$var wire 1 , en $end
$var reg 1 8 q $end
$upscope $end
$scope module dffe6 $end
$var wire 1 # clk $end
$var wire 1 % clr $end
$var wire 1 9 d $end
$var wire 1 , en $end
$var reg 1 : q $end
$upscope $end
$scope module dffe7 $end
$var wire 1 # clk $end
$var wire 1 % clr $end
$var wire 1 ; d $end
$var wire 1 , en $end
$var reg 1 < q $end
$upscope $end
$scope module dffe8 $end
$var wire 1 # clk $end
$var wire 1 % clr $end
$var wire 1 = d $end
$var wire 1 , en $end
$var reg 1 > q $end
$upscope $end
$scope module mux1 $end
$var wire 1 ? in0 $end
$var wire 1 ( in1 $end
$var wire 1 $ select $end
$var wire 1 @ out $end
$upscope $end
$scope module mux2 $end
$var wire 1 A in0 $end
$var wire 1 B in1 $end
$var wire 1 $ select $end
$var wire 1 C out $end
$upscope $end
$scope module mux3 $end
$var wire 1 D in0 $end
$var wire 1 E in1 $end
$var wire 1 $ select $end
$var wire 1 F out $end
$upscope $end
$scope module mux4 $end
$var wire 1 G in0 $end
$var wire 1 H in1 $end
$var wire 1 $ select $end
$var wire 1 I out $end
$upscope $end
$scope module mux5 $end
$var wire 1 J in0 $end
$var wire 1 K in1 $end
$var wire 1 $ select $end
$var wire 1 L out $end
$upscope $end
$scope module mux6 $end
$var wire 1 M in0 $end
$var wire 1 N in1 $end
$var wire 1 $ select $end
$var wire 1 O out $end
$upscope $end
$scope module mux7 $end
$var wire 1 P in0 $end
$var wire 1 Q in1 $end
$var wire 1 $ select $end
$var wire 1 R out $end
$upscope $end
$scope module mux8 $end
$var wire 1 S in0 $end
$var wire 1 T in1 $end
$var wire 1 $ select $end
$var wire 1 U out $end
$upscope $end
$upscope $end
$upscope $end
$enddefinitions $end
#0
$dumpvars
0U
0T
0S
0R
0Q
0P
0O
0N
0M
0L
0K
0J
0I
0H
0G
0F
0E
0D
0C
0B
0A
1@
1?
0>
0=
0<
0;
0:
09
08
07
06
05
04
03
02
01
00
1/
b1 .
b0 -
1,
b1 +
b0 *
0)
0(
0'
b1 &
x%
0$
0#
b0 "
z!
$end
#100
0%
#500
1B
b1 "
b1 *
b1 -
10
1#
#1000
0#
#1500
1#
#2000
0#
#2500
1#
#3000
0#
#3500
1#
#4000
0#
#4500
1#
#5000
0#
#5500
1#
#6000
0#
#6500
1#
#7000
0#
#7500
1#
#8000
0#
#8500
1#
#9000
0#
#9500
1#
#10000
0#
#10500
1#
#11000
0#
#11500
1#
#12000
0#
#12500
1#
#13000
0#
#13500
1#
#14000
0#
#14500
1#
#15000
0#
#15500
1#
#16000
0/
11
0@
b10 .
1C
0#
1$
#16500
01
13
0C
b100 .
1F
0B
1E
00
b10 "
b10 *
b10 -
12
1#
#17000
0#
#17500
15
03
1I
b1000 .
0F
1H
0E
14
b100 "
b100 *
b100 -
02
1#
#18000
0#
#18500
1/
05
17
1@
0I
b10001 .
1L
1(
0H
1K
04
b1000 "
b1000 *
b1000 -
16
1#
#19000
0#
#19500
1/
1;
19
07
1@
11
1O
1)
0L
1(
b100011 .
1C
1N
0K
1B
18
06
b10001 "
b10001 *
b10001 -
10
1#
#20000
0#
#20500
13
0;
09
1=
1F
0O
1R
1'
b11000111 .
1U
1E
0N
1Q
1T
12
08
1:
b1100011 "
b1100011 *
b1100011 -
1<
1#
#21000
0#
#21500
0=
15
0U
0R
b1111 .
1I
0T
0Q
1H
1>
0<
0:
b10000111 "
b10000111 *
b10000111 -
14
1#
#22000
0#
#22500
1/
17
1@
0)
b11111 .
1L
1(
0'
1K
16
b1111 "
b1111 *
b1111 -
0>
1#
#23000
0#
#23500
0/
0@
1;
19
0(
b111110 .
1O
1)
1N
b11111 "
b11111 *
b11111 -
18
1#
#24000
0#
#24500
1/
1@
1(
01
0)
1=
0C
1R
1'
b11111101 .
1U
0B
1Q
1T
00
1:
b1111110 "
b1111110 *
b1111110 -
1<
1#
#25000
0#
#25500
0/
0@
0(
1)
03
11
0'
0F
b11111010 .
1C
0E
1B
1>
02
b11111101 "
b11111101 *
b11111101 -
10
1#
#26000
0#
#26500
01
13
05
0C
1F
b11110100 .
0I
0B
1E
0H
00
12
b11111010 "
b11111010 *
b11111010 -
04
1#
#27000
0#
#27500
1/
07
1@
15
03
0L
1(
1I
b11101001 .
0F
0K
1H
0E
06
14
b11110100 "
b11110100 *
b11110100 -
02
1#
#28000
0#
#28500
11
05
17
0;
09
1C
0I
1L
b11010011 .
0O
0)
1B
0H
1K
0N
10
04
16
b11101001 "
b11101001 *
b11101001 -
08
1#
#29000
0#
#29500
0/
0=
1;
19
07
0@
13
0U
0R
1'
1O
0)
0L
0(
b100110 .
1F
0T
0Q
1N
0K
1E
0<
0:
18
06
b10010011 "
b10010011 *
b10010011 -
12
1#
#30000
0#
#30500
1/
1@
01
15
0;
09
1(
1=
0C
1I
0O
1)
1R
b11001101 .
1U
0B
1H
0N
1Q
1T
00
14
08
1:
1<
b1100110 "
b1100110 *
b1100110 -
0>
1#
#31000
0#
#31500
0/
0=
17
0@
03
11
0U
0R
1L
0(
0F
b11010 .
1C
0T
0Q
1K
0E
1B
1>
0<
0:
16
02
b10001101 "
b10001101 *
b10001101 -
10
1#
#32000
0#
#32500
01
13
05
1;
19
0C
1F
0I
b110100 .
1O
0'
0B
1E
0H
1N
00
12
04
18
b11010 "
b11010 *
b11010 -
0>
1#
#33000
0#
#33500
0/
1=
0)
07
0@
15
03
1U
1R
1'
0L
0(
1I
b11101000 .
0F
1T
1Q
0K
1H
0E
1<
1:
06
14
b1110100 "
b1110100 *
b1110100 -
02
1#
#34000
0#
#34500
1/
05
17
1@
0;
09
0I
1L
1(
b11010001 .
0O
0'
0H
1K
0N
04
16
08
b11101000 "
b11101000 *
b11101000 -
1>
1#
#35000
0#
#35500
0/
0=
1;
19
07
0@
11
0U
0R
1'
1O
0)
0L
0(
b100010 .
1C
0T
0Q
1N
0K
1B
0<
0:
18
06
b10010001 "
b10010001 *
b10010001 -
10
1#
#36000
0#
#36500
1/
1@
01
13
0;
09
1(
1=
0C
1F
0O
1)
1R
b11000101 .
1U
0B
1E
0N
1Q
1T
00
12
08
1:
1<
b1100010 "
b1100010 *
b1100010 -
0>
1#
#37000
0#
#37500
0=
15
03
11
0U
0R
1I
0F
b1011 .
1C
0T
0Q
1H
0E
1B
1>
0<
0:
14
02
b10000101 "
b10000101 *
b10000101 -
10
1#
#38000
0#
#38500
1/
13
05
17
1@
0)
1F
0I
b10111 .
1L
1(
0'
1E
0H
1K
12
04
16
b1011 "
b1011 *
b1011 -
0>
1#
#39000
0#
#39500
1/
1;
19
07
1@
15
1O
1)
0L
1(
b101111 .
1I
1N
0K
1H
18
06
b10111 "
b10111 *
b10111 -
14
1#
#40000
0#
#40500
0/
17
0@
0;
09
1=
1L
0(
0O
1R
1'
b11011110 .
1U
1K
0N
1Q
1T
16
08
1:
b1101111 "
b1101111 *
b1101111 -
1<
1#
#41000
0#
#41500
1/
1@
0=
1;
19
1(
01
0U
0R
1O
0)
b111101 .
0C
0T
0Q
1N
0B
1>
0<
0:
18
b10011110 "
b10011110 *
b10011110 -
00
1#
#42000
0#
#42500
11
03
1=
1C
0F
1R
b11111011 .
1U
1B
0E
1Q
1T
10
02
1:
1<
b1111101 "
b1111101 *
b1111101 -
0>
1#
#43000
0#
#43500
0/
0@
0(
1)
05
13
0'
0I
b11110110 .
1F
0H
1E
1>
04
b11111011 "
b11111011 *
b11111011 -
12
1#
#44000
0#
#44500
1/
01
15
07
1@
0C
1I
b11101101 .
0L
1(
0B
1H
0K
00
14
b11110110 "
b11110110 *
b11110110 -
06
1#
#45000
0#
#45500
1/
0;
09
17
1@
03
11
0O
0)
1L
1(
0F
b11011011 .
1C
0N
1K
0E
1B
08
16
02
b11101101 "
b11101101 *
b11101101 -
10
1#
#46000
0#
#46500
13
05
1;
19
0=
1F
0I
1O
0R
1'
b110111 .
0U
1E
0H
1N
0Q
0T
12
04
18
0:
b10011011 "
b10011011 *
b10011011 -
0<
1#
#47000
0#
#47500
0/
1=
07
0@
15
1U
1R
0L
0(
b11101110 .
1I
1T
1Q
0K
1H
0>
1<
1:
06
b1110111 "
b1110111 *
b1110111 -
14
1#
#48000
0#
#48500
1/
01
17
1@
0;
09
0C
1L
1(
b11011101 .
0O
0'
0B
1K
0N
00
16
08
b11101110 "
b11101110 *
b11101110 -
1>
1#
#49000
0#
#49500
1/
1@
0=
1;
19
1(
03
11
0U
0R
1'
1O
0)
0F
b111011 .
1C
0T
0Q
1N
0E
1B
0<
0:
18
02
b10011101 "
b10011101 *
b10011101 -
10
1#
#50000
0#
#50500
13
05
1=
1F
0I
1R
b11110111 .
1U
1E
0H
1Q
1T
12
04
1:
1<
b1111011 "
b1111011 *
b1111011 -
0>
1#
#51000
0#
#51500
1/
1)
07
1@
15
0'
0L
1(
b11101111 .
1I
0K
1H
1>
06
b11110111 "
b11110111 *
b11110111 -
14
1#
#52000
0#
#52500
17
0;
09
1L
b11011111 .
0O
0)
1K
0N
16
b11101111 "
b11101111 *
b11101111 -
08
1#
#53000
0#
#53500
1/
1@
0=
1;
19
1(
0U
0R
1'
b111111 .
1O
0)
0T
0Q
1N
0<
0:
b10011111 "
b10011111 *
b10011111 -
18
1#
#54000
0#
#54500
1=
1R
b11111111 .
1U
1Q
1T
1:
1<
b1111111 "
b1111111 *
b1111111 -
0>
1#
#55000
0#
#55500
0/
b11111110 .
0@
0(
1)
0'
b11111111 "
b11111111 *
b11111111 -
1>
1#
#56000
0#
#56500
01
b11111100 .
0C
0B
b11111110 "
b11111110 *
b11111110 -
00
1#
#57000
0#
#57500
03
b11111000 .
0F
0E
b11111100 "
b11111100 *
b11111100 -
02
1#
#58000
0#
#58500
05
b11110000 .
0I
0H
b11111000 "
b11111000 *
b11111000 -
04
1#
#59000
0#
#59500
1/
07
1@
b11100001 .
0L
1(
0K
b11110000 "
b11110000 *
b11110000 -
06
1#
#60000
0#
#60500
0/
0@
11
0;
09
0(
1C
b11000010 .
0O
0)
1B
0N
10
b11100001 "
b11100001 *
b11100001 -
08
1#
#61000
0#
#61500
1/
1@
1(
0=
1)
13
01
0U
0R
1'
1F
b101 .
0C
0T
0Q
1E
0B
0<
0:
12
b10000010 "
b10000010 *
b10000010 -
00
1#
#62000
0#
#62500
0/
0@
0(
11
03
15
0)
1C
0F
b1010 .
1I
0'
1B
0E
1H
10
02
14
b101 "
b101 *
b101 -
0>
1#
#63000
0#
#63500
1/
17
1@
05
13
01
1L
1(
0I
1F
b10101 .
0C
1K
0H
1E
0B
16
04
12
b1010 "
b1010 *
b1010 -
00
1#
#64000
0#
#64500
11
03
15
07
1;
19
1C
0F
1I
0L
b101011 .
1O
1)
1B
0E
1H
0K
1N
10
02
14
06
b10101 "
b10101 *
b10101 -
18
1#
#65000
0#
#65500
0/
1=
0;
09
17
0@
05
13
1U
1R
1'
0O
1)
1L
0(
0I
b11010110 .
1F
1T
1Q
0N
1K
0H
1E
1<
1:
08
16
04
b1101011 "
b1101011 *
b1101011 -
12
1#
#66000
0#
#66500
01
15
07
1;
19
0=
0C
1I
0L
1O
0)
0R
b101100 .
0U
0B
1H
0K
1N
0Q
0T
00
14
06
18
0:
0<
b10010110 "
b10010110 *
b10010110 -
1>
1#
#67000
0#
#67500
0/
1=
0;
09
17
0@
03
1U
1R
0O
1)
1L
0(
b11011000 .
0F
1T
1Q
0N
1K
0E
0>
1<
1:
08
16
b1101100 "
b1101100 *
b1101100 -
02
1#
#68000
0#
#68500
1/
1@
05
1;
19
1(
0=
0I
1O
0)
0R
b110001 .
0U
0H
1N
0Q
0T
04
18
0:
0<
b10011000 "
b10011000 *
b10011000 -
1>
1#
#69000
0#
#69500
0/
1=
07
0@
11
1U
1R
0L
0(
b11100010 .
1C
1T
1Q
0K
1B
0>
1<
1:
06
b1110001 "
b1110001 *
b1110001 -
10
1#
#70000
0#
#70500
01
13
0;
09
0C
1F
b11000100 .
0O
0'
0B
1E
0N
00
12
08
b11100010 "
b11100010 *
b11100010 -
1>
1#
#71000
0#
#71500
1/
1@
1(
0=
1)
15
03
0U
0R
1'
1I
b1001 .
0F
0T
0Q
1H
0E
0<
0:
14
b10000100 "
b10000100 *
b10000100 -
02
1#
#72000
0#
#72500
1/
11
05
17
1@
0)
1C
0I
b10011 .
1L
1(
0'
1B
0H
1K
10
04
16
b1001 "
b1001 *
b1001 -
0>
1#
#73000
0#
#73500
1/
1;
19
07
1@
13
1O
1)
0L
1(
b100111 .
1F
1N
0K
1E
18
06
b10011 "
b10011 *
b10011 -
12
1#
#74000
0#
#74500
15
0;
09
1=
1I
0O
1R
1'
b11001111 .
1U
1H
0N
1Q
1T
14
08
1:
b1100111 "
b1100111 *
b1100111 -
1<
1#
#75000
0#
#75500
0/
0=
17
0@
0U
0R
b11110 .
1L
0(
0T
0Q
1K
1>
0<
0:
b10001111 "
b10001111 *
b10001111 -
16
1#
#76000
0#
#76500
01
1;
19
0C
b111100 .
1O
0'
0B
1N
00
18
b11110 "
b11110 *
b11110 -
0>
1#
#77000
0#
#77500
1/
1@
1(
1=
0)
03
1U
1R
1'
b11111001 .
0F
1T
1Q
0E
1<
1:
b1111100 "
b1111100 *
b1111100 -
02
1#
#78000
0#
#78500
0/
0@
0(
11
05
1)
1C
b11110010 .
0I
0'
1B
0H
10
04
b11111001 "
b11111001 *
b11111001 -
1>
1#
#79000
0#
#79500
1/
07
1@
13
01
0L
1(
1F
b11100101 .
0C
0K
1E
0B
06
12
b11110010 "
b11110010 *
b11110010 -
00
1#
#80000
0#
#80500
0/
0@
11
03
15
0;
09
0(
1C
0F
1I
b11001010 .
0O
0)
1B
0E
1H
0N
10
02
14
b11100101 "
b11100101 *
b11100101 -
08
1#
#81000
0#
#81500
0/
0=
1)
17
0@
05
13
01
0U
0R
1'
1L
0(
0I
1F
b10100 .
0C
0T
0Q
1K
0H
1E
0B
0<
0:
16
04
12
b10001010 "
b10001010 *
b10001010 -
00
1#
#82000
0#
#82500
1/
03
15
07
1@
1;
19
0F
1I
0L
1(
b101001 .
1O
0'
0E
1H
0K
1N
02
14
06
18
b10100 "
b10100 *
b10100 -
0>
1#
#83000
0#
#83500
0/
1=
0;
09
17
0@
05
11
1U
1R
1'
0O
1)
1L
0(
0I
b11010010 .
1C
1T
1Q
0N
1K
0H
1B
1<
1:
08
16
04
b1101001 "
b1101001 *
b1101001 -
10
1#
#84000
0#
#84500
01
13
07
1;
19
0=
0C
1F
0L
1O
0)
0R
b100100 .
0U
0B
1E
0K
1N
0Q
0T
00
12
06
18
0:
0<
b10010010 "
b10010010 *
b10010010 -
1>
1#
#85000
0#
#85500
1/
1@
1=
0;
09
1(
15
03
1U
1R
0O
1)
1I
b11001001 .
0F
1T
1Q
0N
1H
0E
0>
1<
1:
08
14
b1100100 "
b1100100 *
b1100100 -
02
1#
#86000
0#
#86500
0/
11
05
17
0@
0=
1C
0I
1L
0(
0R
b10010 .
0U
1B
0H
1K
0Q
0T
10
04
16
0:
0<
b10001001 "
b10001001 *
b10001001 -
1>
1#
#87000
0#
#87500
1/
1;
19
07
1@
13
01
0'
1O
1)
0L
1(
1F
b100101 .
0C
1N
0K
1E
0B
0>
18
06
12
b10010 "
b10010 *
b10010 -
00
1#
#88000
0#
#88500
11
03
15
0;
09
1=
1C
0F
1I
0O
1R
1'
b11001011 .
1U
1B
0E
1H
0N
1Q
1T
10
02
14
08
1:
b1100101 "
b1100101 *
b1100101 -
1<
1#
#89000
0#
#89500
0/
0=
17
0@
05
13
0U
0R
1L
0(
0I
b10110 .
1F
0T
0Q
1K
0H
1E
1>
0<
0:
16
04
b10001011 "
b10001011 *
b10001011 -
12
1#
#90000
0#
#90500
1/
01
15
07
1@
1;
19
0C
1I
0L
1(
b101101 .
1O
0'
0B
1H
0K
1N
00
14
06
18
b10110 "
b10110 *
b10110 -
0>
1#
#91000
0#
#91500
0/
1=
0;
09
17
0@
03
11
1U
1R
1'
0O
1)
1L
0(
0F
b11011010 .
1C
1T
1Q
0N
1K
0E
1B
1<
1:
08
16
02
b1101101 "
b1101101 *
b1101101 -
10
1#
#92000
0#
#92500
1/
1@
01
13
05
1;
19
1(
0=
0C
1F
0I
1O
0)
0R
b110101 .
0U
0B
1E
0H
1N
0Q
0T
00
12
04
18
0:
0<
b10011010 "
b10011010 *
b10011010 -
1>
1#
#93000
0#
#93500
0/
1=
07
0@
15
03
11
1U
1R
0L
0(
1I
0F
b11101010 .
1C
1T
1Q
0K
1H
0E
1B
0>
1<
1:
06
14
02
b1110101 "
b1110101 *
b1110101 -
10
1#
#94000
0#
#94500
1/
01
13
05
17
1@
0;
09
0C
1F
0I
1L
1(
b11010101 .
0O
0'
0B
1E
0H
1K
0N
00
12
04
16
08
b11101010 "
b11101010 *
b11101010 -
1>
1#
#95000
0#
#95500
0/
0=
1;
19
07
0@
15
03
11
0U
0R
1'
1O
0)
0L
0(
1I
0F
b101010 .
1C
0T
0Q
1N
0K
1H
0E
1B
0<
0:
18
06
14
02
b10010101 "
b10010101 *
b10010101 -
10
1#
#96000
0#
#96500
01
13
05
17
0;
09
1=
0C
1F
0I
1L
0O
1)
1R
b11010100 .
1U
0B
1E
0H
1K
0N
1Q
1T
00
12
04
16
08
1:
1<
b1101010 "
b1101010 *
b1101010 -
0>
1#
#97000
0#
#97500
0/
0=
1;
19
07
0@
15
03
0U
0R
1O
0)
0L
0(
1I
b101000 .
0F
0T
0Q
1N
0K
1H
0E
1>
0<
0:
18
06
14
b10010100 "
b10010100 *
b10010100 -
02
1#
#98000
0#
#98500
05
17
0;
09
1=
0I
1L
0O
1)
1R
b11010000 .
1U
0H
1K
0N
1Q
1T
04
16
08
1:
1<
b1101000 "
b1101000 *
b1101000 -
0>
1#
#99000
0#
#99500
0/
0=
1;
19
07
0@
0U
0R
1O
0)
b100000 .
0L
0(
0T
0Q
1N
0K
1>
0<
0:
18
b10010000 "
b10010000 *
b10010000 -
06
1#
#100000
0#
#100500
1/
1@
0;
09
1(
1=
0O
1)
1R
b11000001 .
1U
0N
1Q
1T
08
1:
1<
b1100000 "
b1100000 *
b1100000 -
0>
1#
#101000
0#
#101500
0=
11
0U
0R
b11 .
1C
0T
0Q
1B
1>
0<
0:
b10000001 "
b10000001 *
b10000001 -
10
1#
#102000
0#
#102500
0/
0@
0(
13
0)
b110 .
1F
0'
1E
12
b11 "
b11 *
b11 -
0>
1#
#103000
0#
#103500
15
01
1I
b1100 .
0C
1H
0B
14
b110 "
b110 *
b110 -
00
1#
#104000
0#
#104500
1/
03
17
1@
0F
b11001 .
1L
1(
0E
1K
02
b1100 "
b1100 *
b1100 -
16
1#
#105000
0#
#105500
0/
0@
1;
19
0(
05
11
1O
1)
0I
b110010 .
1C
1N
0H
1B
18
04
b11001 "
b11001 *
b11001 -
10
1#
#106000
0#
#106500
0/
01
13
07
0@
0)
1=
0C
1F
0L
0(
1R
1'
b11100100 .
1U
0B
1E
0K
1Q
1T
00
12
06
1:
b1110010 "
b1110010 *
b1110010 -
1<
1#
#107000
0#
#107500
0/
0@
0;
09
0(
15
03
0'
0O
0)
1I
b11001000 .
0F
0N
1H
0E
1>
08
14
b11100100 "
b11100100 *
b11100100 -
02
1#
#108000
0#
#108500
0/
05
17
0@
1)
0=
0I
1L
0(
0R
1'
b10000 .
0U
0H
1K
0Q
0T
04
16
0:
b10001000 "
b10001000 *
b10001000 -
0<
1#
#109000
0#
#109500
1/
1;
19
07
1@
0'
1O
1)
b100001 .
0L
1(
1N
0K
0>
18
b10000 "
b10000 *
b10000 -
06
1#
#110000
0#
#110500
11
0;
09
1=
1C
0O
1R
1'
b11000011 .
1U
1B
0N
1Q
1T
10
08
1:
b1100001 "
b1100001 *
b1100001 -
1<
1#
#111000
0#
#111500
0=
13
0U
0R
b111 .
1F
0T
0Q
1E
1>
0<
0:
b10000011 "
b10000011 *
b10000011 -
12
1#
#112000
0#
#112500
0/
0@
0(
15
0)
b1110 .
1I
0'
1H
14
b111 "
b111 *
b111 -
0>
1#
#113000
0#
#113500
1/
17
1@
01
1L
1(
b11101 .
0C
1K
0B
16
b1110 "
b1110 *
b1110 -
00
1#
#114000
0#
#114500
0/
0@
11
03
1;
19
0(
1C
0F
b111010 .
1O
1)
1B
0E
1N
10
02
b11101 "
b11101 *
b11101 -
18
1#
#115000
0#
#115500
1/
1@
1(
1=
0)
05
13
01
1U
1R
1'
0I
1F
b11110101 .
0C
1T
1Q
0H
1E
0B
1<
1:
04
12
b1111010 "
b1111010 *
b1111010 -
00
1#
#116000
0#
#116500
1/
11
03
15
07
1@
1)
1C
0F
1I
b11101011 .
0L
1(
0'
1B
0E
1H
0K
10
02
14
06
b11110101 "
b11110101 *
b11110101 -
1>
1#
#117000
0#
#117500
1/
0;
09
17
1@
05
13
0O
0)
1L
1(
0I
b11010111 .
1F
0N
1K
0H
1E
08
16
04
b11101011 "
b11101011 *
b11101011 -
12
1#
#118000
0#
#118500
0/
15
07
0@
1;
19
0=
1I
0L
0(
1O
0R
1'
b101110 .
0U
1H
0K
1N
0Q
0T
14
06
18
0:
b10010111 "
b10010111 *
b10010111 -
0<
1#
#119000
0#
#119500
0/
1=
0;
09
17
0@
01
1U
1R
0O
1)
1L
0(
b11011100 .
0C
1T
1Q
0N
1K
0B
0>
1<
1:
08
16
b1101110 "
b1101110 *
b1101110 -
00
1#
#120000
0#
#120500
1/
1@
03
1;
19
1(
0=
0F
1O
0)
0R
b111001 .
0U
0E
1N
0Q
0T
02
18
0:
0<
b10011100 "
b10011100 *
b10011100 -
1>
1#
#121000
0#
#121500
1=
05
11
1U
1R
0I
b11110011 .
1C
1T
1Q
0H
1B
0>
1<
1:
04
b1111001 "
b1111001 *
b1111001 -
10
1#
#122000
0#
#122500
1/
13
07
1@
1)
1F
b11100111 .
0L
1(
0'
1E
0K
12
06
b11110011 "
b11110011 *
b11110011 -
1>
1#
#123000
0#
#123500
0/
0@
0;
09
0(
15
0O
0)
b11001110 .
1I
0N
1H
08
b11100111 "
b11100111 *
b11100111 -
14
1#
#124000
0#
#124500
0/
01
17
0@
1)
0=
0C
1L
0(
0R
1'
b11100 .
0U
0B
1K
0Q
0T
00
16
0:
b10001110 "
b10001110 *
b10001110 -
0<
1#
#125000
0#
#125500
0/
0@
1;
19
0(
03
0'
1O
1)
b111000 .
0F
1N
0E
0>
18
b11100 "
b11100 *
b11100 -
02
1#
#126000
0#
#126500
1/
1@
1(
05
0)
1=
0I
1R
1'
b11110001 .
1U
0H
1Q
1T
04
1:
b1111000 "
b1111000 *
b1111000 -
1<
1#
#127000
0#
#127500
1/
1)
07
1@
11
0'
0L
1(
b11100011 .
1C
0K
1B
1>
06
b11110001 "
b11110001 *
b11110001 -
10
1#
#128000
0#
#128500
0/
0@
13
0;
09
0(
1F
b11000110 .
0O
0)
1E
0N
12
b11100011 "
b11100011 *
b11100011 -
08
1#
#129000
0#
#129500
1/
1@
1(
0=
1)
15
01
0U
0R
1'
1I
b1101 .
0C
0T
0Q
1H
0B
0<
0:
14
b10000110 "
b10000110 *
b10000110 -
00
1#
#130000
0#
#130500
1/
11
03
17
1@
0)
1C
0F
b11011 .
1L
1(
0'
1B
0E
1K
10
02
16
b1101 "
b1101 *
b1101 -
0>
1#
#131000
0#
#131500
0/
0@
1;
19
0(
05
13
1O
1)
0I
b110110 .
1F
1N
0H
1E
18
04
b11011 "
b11011 *
b11011 -
12
1#
#132000
0#
#132500
0/
01
15
07
0@
0)
1=
0C
1I
0L
0(
1R
1'
b11101100 .
1U
0B
1H
0K
1Q
1T
00
14
06
1:
b1110110 "
b1110110 *
b1110110 -
1<
1#
#133000
0#
#133500
1/
0;
09
17
1@
03
0'
0O
0)
1L
1(
b11011001 .
0F
0N
1K
0E
1>
08
16
b11101100 "
b11101100 *
b11101100 -
02
1#
#134000
0#
#134500
11
05
1;
19
0=
1C
0I
1O
0R
1'
b110011 .
0U
1B
0H
1N
0Q
0T
10
04
18
0:
b10011001 "
b10011001 *
b10011001 -
0<
1#
#135000
0#
#135500
0/
1=
07
0@
13
1U
1R
0L
0(
b11100110 .
1F
1T
1Q
0K
1E
0>
1<
1:
06
b1110011 "
b1110011 *
b1110011 -
12
1#
#136000
0#
#136500
01
15
0;
09
0C
1I
b11001100 .
0O
0'
0B
1H
0N
00
14
08
b11100110 "
b11100110 *
b11100110 -
1>
1#
#137000
0#
#137500
0/
0=
1)
17
0@
03
0U
0R
1'
1L
0(
b11000 .
0F
0T
0Q
1K
0E
0<
0:
16
b10001100 "
b10001100 *
b10001100 -
02
1#
#138000
0#
#138500
05
1;
19
0I
b110000 .
1O
0'
0H
1N
04
18
b11000 "
b11000 *
b11000 -
0>
1#
#139000
0#
#139500
0/
1=
0)
07
0@
1U
1R
1'
b11100000 .
0L
0(
1T
1Q
0K
1<
1:
b1110000 "
b1110000 *
b1110000 -
06
1#
#140000
0#
#140500
0;
09
b11000000 .
0O
0'
0N
08
b11100000 "
b11100000 *
b11100000 -
1>
1#
#141000
0#
#141500
1/
1@
1(
0=
1)
0U
b1 .
0R
1'
0T
0Q
0<
b10000000 "
b10000000 *
b10000000 -
0:
1#
#142000
0#
#142500
0/
0@
0(
11
0)
b10 .
1C
0'
1B
10
b1 "
b1 *
b1 -
0>
1#
#143000
0#
#143500
13
01
1F
b100 .
0C
1E
0B
12
b10 "
b10 *
b10 -
00
1#
#144000
0#
#144500
03
15
0F
b1000 .
1I
0E
1H
02
b100 "
b100 *
b100 -
14
1#
#145000
0#
#145500
1/
17
1@
05
1L
1(
b10001 .
0I
1K
0H
16
b1000 "
b1000 *
b1000 -
04
1#
#146000
0#
#146500
11
07
1;
19
1C
0L
b100011 .
1O
1)
1B
0K
1N
10
06
b10001 "
b10001 *
b10001 -
18
1#
#147000
0#
#147500
1/
1@
1=
0;
09
1(
13
1U
1R
1'
0O
1)
b11000111 .
1F
1T
1Q
0N
1E
1<
1:
08
b1100011 "
b1100011 *
b1100011 -
12
1#
#148000
0#
#148500
15
0=
1I
0R
b1111 .
0U
1H
0Q
0T
14
0:
0<
b10000111 "
b10000111 *
b10000111 -
1>
1#
#149000
0#
#149500
1/
0)
17
1@
0'
b11111 .
1L
1(
1K
0>
b1111 "
b1111 *
b1111 -
16
1#
#150000
0#
#150500
0/
0@
1;
19
0(
b111110 .
1O
1)
1N
b11111 "
b11111 *
b11111 -
18
1#
#151000
0#
#151500
1/
1@
1(
1=
0)
01
1U
1R
1'
b11111101 .
0C
1T
1Q
0B
1<
1:
b1111110 "
b1111110 *
b1111110 -
00
1#
#152000
0#
#152500
0/
0@
0(
11
03
1)
1C
b11111010 .
0F
0'
1B
0E
10
02
b11111101 "
b11111101 *
b11111101 -
1>
1#
#153000
0#
#153500
05
13
01
0I
1F
b11110100 .
0C
0H
1E
0B
04
12
b11111010 "
b11111010 *
b11111010 -
00
1#
#154000
0#
#154500
1/
03
15
07
1@
0F
1I
b11101001 .
0L
1(
0E
1H
0K
02
14
b11110100 "
b11110100 *
b11110100 -
06
1#
#155000
0#
#155500
1/
0;
09
17
1@
05
11
0O
0)
1L
1(
0I
b11010011 .
1C
0N
1K
0H
1B
08
16
04
b11101001 "
b11101001 *
b11101001 -
10
1#
#156000
0#
#156500
0/
13
07
0@
1;
19
0=
1F
0L
0(
1O
0R
1'
b100110 .
0U
1E
0K
1N
0Q
0T
12
06
18
0:
b10010011 "
b10010011 *
b10010011 -
0<
1#
#157000
0#
#157500
1/
1@
1=
0;
09
1(
15
01
1U
1R
0O
1)
1I
b11001101 .
0C
1T
1Q
0N
1H
0B
0>
1<
1:
08
14
b1100110 "
b1100110 *
b1100110 -
00
1#
#158000
0#
#158500
0/
11
03
17
0@
0=
1C
0F
1L
0(
0R
b11010 .
0U
1B
0E
1K
0Q
0T
10
02
16
0:
0<
b10001101 "
b10001101 *
b10001101 -
1>
1#
#159000
0#
#159500
0/
0@
1;
19
0(
05
13
01
0'
1O
1)
0I
1F
b110100 .
0C
1N
0H
1E
0B
0>
18
04
12
b11010 "
b11010 *
b11010 -
00
1#
#160000
0#
#160500
0/
03
15
07
0@
0)
1=
0F
1I
0L
0(
1R
1'
b11101000 .
1U
0E
1H
0K
1Q
1T
02
14
06
1:
b1110100 "
b1110100 *
b1110100 -
1<
1#
#161000
0#
